{
    "tests": [
        {
            "type": "syntax",
            "max_score": 10.0,
            "number": "1",
            "tags": [],
            "visibility": "visible",
            "memory_limit_mb": 1024
        },
        {
            "type": "functionality",
            "max_score": 35.0,
            "number": "2",
            "tags": [],
            "visibility": "visible",
            "tester_file": "tests/fixtures/integration/py/sumdiff_tester.py",
            "memory_limit_mb": 1024
        },
        {
            "type": "functionality",
            "max_score": 35.0,
            "number": "3",
            "tags": [],
            "visibility": "visible",
            "tester_file": "tests/fixtures/integration/py/fibonacci_tester.py",
            "memory_limit_mb": 1024
        },
        {
            "type": "comments",
            "max_score": 10.0,
            "number": "4",
            "tags": [],
            "visibility": "visible"
        },
        {
            "type": "static_analysis",
            "max_score": 10.0,
            "number": "5",
            "tags": [],
            "visibility": "visible"
        }
    ],
    "globals": {
        "requirements": [
            "numpy"
        ]
    }
}