{
    "pass": "Your script runs. This means that it contains no syntax errors. Well done!",
    "fail": "Unfortunately your script does not run as it contains syntax errors. It failed with the following error: \n"
}