{
    "tests": [
        {
            "type": "compile",
            "max_score": 10.0,
            "number": "1",
            "tags": [],
            "visibility": "visible"
        },
        {
            "type": "functionality",
            "max_score": 60.0,
            "number": "2",
            "tags": [],
            "visibility": "visible",
            "tester_file": "tests/fixtures/integration/cpp_o/run_code.cpp"
        },
        {
            "type": "static",
            "max_score": 10.0,
            "number": "4",
            "tags": [],
            "visibility": "visible"
        },
        {
            "type": "comments",
            "max_score": 10.0,
            "number": "3",
            "tags": [],
            "visibility": "visible"
        },
        {
            "type": "style",
            "max_score": 10.0,
            "number": "5",
            "tags": [],
            "visibility": "visible",
            "style": "google"
        }
    ]
}